module tgbot-newyear

go 1.17

require (
	github.com/go-telegram-bot-api/telegram-bot-api v4.6.4+incompatible
	gorm.io/driver/mysql v1.2.1
	gorm.io/gorm v1.22.4
)

require (
	github.com/go-sql-driver/mysql v1.6.0 // indirect
	github.com/jinzhu/inflection v1.0.0 // indirect
	github.com/jinzhu/now v1.1.3 // indirect
	github.com/technoweenie/multipartstreamer v1.0.1 // indirect
)
